{
  "swagger": "2.0",
  "info": {
    "title": "SenaiRunners API",
    "description": "Senai Runners API",
    "version": "1.0.0"
  },
  "host": "107.191.109.96",
  "schemes": [
    "http"
  ],
  "basePath": "/SenaiRunner",
  "produces": [
    "application/json"
  ],
  "paths": {
    "/runs": {
      "get": {
        "summary": "Lista Corridas",
        "description": "Relação de corridas\n",
        "tags": [
          "Corrida"
        ],
        "responses": {
          "200": {
            "description": "Um array de corridas",
            "schema": {
              "type": "array",
              "items": {
                "$ref": "#/definitions/Run"
              }
            }
          },
          "default": {
            "description": "Unexpected error",
            "schema": {
              "$ref": "#/definitions/Error"
            }
          }
        }
      },
      "post": {
        "summary": "Salva Corridas",
        "description": "Insere uma nova corrida\n",
        "tags": [
          "Corrida"
        ],
        "responses": {
          "200": {
            "description": "Um array com os dados da corrida",
            "schema": {
              "type": "array",
              "items": {
                "$ref": "#/definitions/Run"
              }
            }
          },
          "default": {
            "description": "Unexpected error",
            "schema": {
              "$ref": "#/definitions/Error"
            }
          }
        }
      }
    },
    "/runs/{id}": {
      "get": {
        "summary": "Retorna o array de uma corrida pelo id informado",
        "description": "array da corrida.\n",
        "parameters": [
          {
            "name": "id",
            "in": "path",
            "description": "id da corrida",
            "required": true,
            "type": "number"
          }
        ],
        "tags": [
          "Corrida"
        ],
        "responses": {
          "200": {
            "description": "Um array com os dados da corrida",
            "schema": {
              "type": "array",
              "items": {
                "$ref": "#/definitions/Run"
              }
            }
          },
          "default": {
            "description": "Unexpected error",
            "schema": {
              "$ref": "#/definitions/Error"
            }
          }
        }
      },
      "put": {
        "summary": "Corridas",
        "description": "Atualiza uma corrida\n",
        "parameters": [
          {
            "name": "id",
            "in": "path",
            "description": "id da corrida",
            "required": true,
            "type": "number"
          }
        ],
        "tags": [
          "Corrida"
        ],
        "responses": {
          "200": {
            "description": "Um array com os dados da corrida",
            "schema": {
              "type": "array",
              "items": {
                "$ref": "#/definitions/Run"
              }
            }
          },
          "default": {
            "description": "Unexpected error",
            "schema": {
              "$ref": "#/definitions/Error"
            }
          }
        }
      },
      "delete": {
        "summary": "deleta uma corrida",
        "description": "Atualiza uma corrida\n",
        "parameters": [
          {
            "name": "id",
            "in": "path",
            "description": "id da corrida",
            "required": true,
            "type": "number"
          }
        ],
        "tags": [
          "Corrida"
        ],
        "responses": {
          "200": {
            "description": "Não retorna valores"
          },
          "default": {
            "description": "Unexpected error",
            "schema": {
              "$ref": "#/definitions/Error"
            }
          }
        }
      }
    },
    "/runs/{id}/runners/": {
      "get": {
        "summary": "Inscricao",
        "description": "Relação de corredores.\n",
        "parameters": [
          {
            "name": "id",
            "in": "path",
            "description": "id da corrida",
            "required": true,
            "type": "number"
          }
        ],
        "tags": [
          "Inscricao"
        ],
        "responses": {
          "200": {
            "description": "Um array de corredores",
            "schema": {
              "type": "array",
              "items": {
                "$ref": "#/definitions/Entry"
              }
            }
          },
          "default": {
            "description": "Unexpected error",
            "schema": {
              "$ref": "#/definitions/Error"
            }
          }
        }
      }
    },
    "/runs/{id}/runners/{idRunner}": {
      "get": {
        "summary": "Inscricao",
        "description": "Dados do corredor\n",
        "parameters": [
          {
            "name": "id",
            "in": "path",
            "description": "id da corrida",
            "required": true,
            "type": "number"
          },
          {
            "name": "idRunner",
            "in": "path",
            "description": "id do corredor",
            "required": true,
            "type": "number"
          }
        ],
        "tags": [
          "Inscricao"
        ],
        "responses": {
          "200": {
            "description": "Um array de corredor",
            "schema": {
              "type": "array",
              "items": {
                "$ref": "#/definitions/Entry"
              }
            }
          },
          "default": {
            "description": "Unexpected error",
            "schema": {
              "$ref": "#/definitions/Error"
            }
          }
        }
      },
      "post": {
        "summary": "Inscricao",
        "description": "Insere uma nova inscrição\n",
        "parameters": [
          {
            "name": "id",
            "in": "path",
            "description": "id da corrida",
            "required": true,
            "type": "number"
          },
          {
            "name": "idRunner",
            "in": "path",
            "description": "id do corredor",
            "required": true,
            "type": "number"
          }
        ],
        "tags": [
          "Inscricao"
        ],
        "responses": {
          "200": {
            "description": "Um array com os dados da inscrição",
            "schema": {
              "type": "array",
              "items": {
                "$ref": "#/definitions/Entry"
              }
            }
          },
          "default": {
            "description": "Unexpected error",
            "schema": {
              "$ref": "#/definitions/Error"
            }
          }
        }
      },
      "put": {
        "summary": "Inscricao",
        "description": "Atualiza uma inscrição\n",
        "parameters": [
          {
            "name": "id",
            "in": "path",
            "description": "id da corrida",
            "required": true,
            "type": "number"
          },
          {
            "name": "idRunner",
            "in": "path",
            "description": "id do corredor",
            "required": true,
            "type": "number"
          }
        ],
        "tags": [
          "Inscricao"
        ],
        "responses": {
          "200": {
            "description": "Um array com os dados da inscrição",
            "schema": {
              "type": "array",
              "items": {
                "$ref": "#/definitions/Entry"
              }
            }
          },
          "default": {
            "description": "Unexpected error",
            "schema": {
              "$ref": "#/definitions/Error"
            }
          }
        }
      },
      "delete": {
        "summary": "Inscricao",
        "description": "Atualiza uma inscrição\n",
        "parameters": [
          {
            "name": "id",
            "in": "path",
            "description": "id da corrida",
            "required": true,
            "type": "number"
          },
          {
            "name": "idRunner",
            "in": "path",
            "description": "id do corredor",
            "required": true,
            "type": "number"
          }
        ],
        "tags": [
          "Inscricao"
        ],
        "responses": {
          "200": {
            "description": "Não retorna valores"
          },
          "default": {
            "description": "Unexpected error",
            "schema": {
              "$ref": "#/definitions/Error"
            }
          }
        }
      }
    },
    "/runners": {
      "get": {
        "summary": "Dados do Corredor",
        "description": "Relação de corredores.\n",
        "tags": [
          "Corredor"
        ],
        "responses": {
          "200": {
            "description": "Um array de corredores",
            "schema": {
              "type": "array",
              "items": {
                "$ref": "#/definitions/Runner"
              }
            }
          },
          "default": {
            "description": "Unexpected error",
            "schema": {
              "$ref": "#/definitions/Error"
            }
          }
        }
      },
      "post": {
        "summary": "Corredor",
        "description": "Insere uma nova corrida\n",
        "tags": [
          "Corredor"
        ],
        "responses": {
          "200": {
            "description": "Um array com os dados do corredor",
            "schema": {
              "type": "array",
              "items": {
                "$ref": "#/definitions/Runner"
              }
            }
          },
          "default": {
            "description": "Unexpected error",
            "schema": {
              "$ref": "#/definitions/Error"
            }
          }
        }
      }
    },
    "/runners/{id}": {
      "put": {
        "summary": "Corredor",
        "description": "Atualiza um corredor\n",
        "parameters": [
          {
            "name": "id",
            "in": "path",
            "description": "id do corredor",
            "required": true,
            "type": "number"
          }
        ],
        "tags": [
          "Corredor"
        ],
        "responses": {
          "200": {
            "description": "Um array com os dados do corredor",
            "schema": {
              "type": "array",
              "items": {
                "$ref": "#/definitions/Runner"
              }
            }
          },
          "default": {
            "description": "Unexpected error",
            "schema": {
              "$ref": "#/definitions/Error"
            }
          }
        }
      },
      "delete": {
        "summary": "Corredor",
        "description": "Atualiza um corredor\n",
        "parameters": [
          {
            "name": "id",
            "in": "path",
            "description": "id do corredor",
            "required": true,
            "type": "number"
          }
        ],
        "tags": [
          "Corredor"
        ],
        "responses": {
          "200": {
            "description": "Não retorna valores"
          },
          "default": {
            "description": "Unexpected error",
            "schema": {
              "$ref": "#/definitions/Error"
            }
          }
        }
      },
      "get": {
        "summary": "Corredor",
        "description": "Retorna o array de um corredor pelo id informado.\n",
        "parameters": [
          {
            "name": "id",
            "in": "path",
            "description": "id do corredor",
            "required": true,
            "type": "number"
          }
        ],
        "tags": [
          "Corredor"
        ],
        "responses": {
          "200": {
            "description": "Um array com os dados do corredor",
            "schema": {
              "type": "array",
              "items": {
                "$ref": "#/definitions/Runner"
              }
            }
          },
          "default": {
            "description": "Unexpected error",
            "schema": {
              "$ref": "#/definitions/Error"
            }
          }
        }
      }
    }
  },
  "definitions": {
    "Run": {
      "properties": {
        "id": {
          "type": "number",
          "description": "Identificador único da corrida."
        },
        "nome": {
          "type": "string",
          "description": "Nome da Corrida."
        },
        "status": {
          "type": "string",
          "description": "Status da corrida."
        },
        "data": {
          "type": "string",
          "format": "date",
          "description": "Data da Corrida."
        },
        "descricao": {
          "type": "string",
          "description": "Descrição da corrida."
        },
        "estado": {
          "type": "string",
          "description": "Estado da realização da corrida."
        },
        "vlrInscricao": {
          "type": "string",
          "format": "double",
          "description": "Valor da inscrição."
        }
      }
    },
    "Runner": {
      "properties": {
        "id": {
          "type": "number",
          "description": "Identificador único da corrida."
        },
        "nome": {
          "type": "string",
          "description": "Nome da Corrida."
        },
        "cidade": {
          "type": "string",
          "description": "Cidade do corredor."
        },
        "dataNasc": {
          "type": "string",
          "format": "date",
          "description": "Data da Corrida."
        },
        "crescricao": {
          "type": "string",
          "description": "Descrição da corrida."
        },
        "estado": {
          "type": "string",
          "description": "Estado da realização da corrida."
        },
        "status": {
          "type": "string",
          "description": "Status do corredor."
        }
      }
    },
    "Entry": {
      "properties": {
        "corredor": {
          "type": "number",
          "description": "Id do corredor."
        },
        "corrida": {
          "type": "number",
          "description": "Id da corrida."
        },
        "statusPag": {
          "type": "number",
          "description": "1 para pago 0 para não pago"
        }
      }
    },
    "Error": {
      "properties": {
        "code": {
          "type": "integer",
          "format": "int32"
        },
        "message": {
          "type": "string"
        },
        "fields": {
          "type": "string"
        }
      }
    }
  }
}